module gitlab.com/yellowhat-labs/podinfo

go 1.23.0

toolchain go1.24.1

require github.com/prometheus/client_golang v1.21.1

require (
	github.com/beorn7/perks v1.0.1 // indirect
	github.com/cespare/xxhash/v2 v2.3.0 // indirect
	github.com/klauspost/compress v1.18.0 // indirect
	github.com/munnerz/goautoneg v0.0.0-20191010083416-a7dc8b61c822 // indirect
	github.com/prometheus/client_model v0.6.1 // indirect
	github.com/prometheus/common v0.62.0 // indirect
	github.com/prometheus/procfs v0.15.1 // indirect
	golang.org/x/sys v0.31.0 // indirect
	google.golang.org/protobuf v1.36.5 // indirect
)
