{
    "Dockerfile": ["docker.io/golang"],
    ".gitlab/ci-test.yaml": ["docker.io/golang"],
    ".gitlab/ci-linter.yaml": [
        "docker.io/golang",
        "docker.io/golang",
        "docker.io/golang",
        "docker.io/golang",
        "docker.io/golangci/golangci-lint"
    ],
    ".gitlab-ci.yml": [
        "yellowhat-labs/bootstrap",
        "yellowhat-labs/bootstrap",
        "yellowhat-labs/bootstrap",
        "yellowhat-labs/bootstrap"
    ],
    "go.mod": [
        "go",
        "go",
        "github.com/prometheus/client_golang",
        "github.com/beorn7/perks",
        "github.com/cespare/xxhash/v2",
        "github.com/klauspost/compress",
        "github.com/munnerz/goautoneg",
        "github.com/prometheus/client_model",
        "github.com/prometheus/common",
        "github.com/prometheus/procfs",
        "golang.org/x/sys",
        "google.golang.org/protobuf"
    ],
    "Makefile": ["docker.io/golang"]
}
